{
  "project_info": {
    "project_number": "248803326554",
    "project_id": "ultra-call",
    "storage_bucket": "ultra-call.appspot.com"
  },
  "client": [
    {
      "client_info": {
        "mobilesdk_app_id": "1:248803326554:android:6c7abb37e57bedd3cff663",
        "android_client_info": {
          "package_name": "com.ultralab.ultracall"
        }
      },
      "oauth_client": [
        {
          "client_id": "248803326554-0gq7336n35dte9edsl0o64et387uqbdm.apps.googleusercontent.com",
          "client_type": 3
        }
      ],
      "api_key": [
        {
          "current_key": "AIzaSyB0TW-DZD5Hl4a0mvMax4_ehx5z16IpAS4"
        }
      ],
      "services": {
        "appinvite_service": {
          "other_platform_oauth_client": [
            {
              "client_id": "248803326554-0gq7336n35dte9edsl0o64et387uqbdm.apps.googleusercontent.com",
              "client_type": 3
            }
          ]
        }
      }
    }
  ],
  "configuration_version": "1"
}